Teplice
…
Velké obce srovnání

# A tibble: 51 × 2
   OBEC       n
   <chr>  <int>
 1 500089  1350
 2 500097  1716
 3 500119  4092
 4 500143  2754
 5 500178  3328
 6 500186  1080
 7 500208  3672
 8 500216  1176
 9 500224  3379
10 500496  1056
# … with 41 more rows
…
# A tibble: 282 × 6
   OBEC   ZKRATKAO8  podil_okrsku_na_strane percentil ID_OKRSKY  rank
   <chr>  <chr>                       <dbl>     <int> <chr>     <dbl>
 1 567442 PRO Zdraví                 0.101          1 941          25
 2 567442 PRO Zdraví                 0.0628         8 943         244
 3 567442 PRO Zdraví                 0.0500        20 960         655
 4 567442 KSČM                       0.0493        21 970         701
 5 567442 PRO Zdraví                 0.0483        23 942         759
 6 567442 PRO Zdraví                 0.0450        30 965        1001
 7 567442 PRO Zdraví                 0.0438        34 937        1135
 8 567442 KSČM                       0.0426        38 959        1272
 9 567442 PRO Zdraví                 0.0425        38 948        1285
10 567442 KSČM                       0.0409        44 969        1465
# … with 272 more rows
…
Všechna města

# A tibble: 276 × 4
# Groups:   obec_kod, ZKRATKAO8 [276]
   obec_nazev         obec_kod ZKRATKAO8          ac
   <chr>              <chr>    <chr>           <dbl>
 1 Blansko            581283   Piráti         -0.220
 2 Jindřichův Hradec  545881   Patrioti ČR+NK -0.187
 3 Třebíč             590266   SPD+Trikolora  -0.165
 4 Třebíč             590266   Piráti+NK      -0.147
 5 Kladno             532053   PŘÍSAHA        -0.139
 6 Jablonec nad Nisou 563510   NBPLK+NK       -0.126
 7 Jindřichův Hradec  545881   SNK ED+NK      -0.120
 8 Šumperk            523704   Zelení+ČSSD+NK -0.120
 9 Jindřichův Hradec  545881   JIH 12+NK      -0.118
10 Karlovy Vary       554961   BEZ-UL+PES     -0.114
# … with 266 more rows
…
